{
  "passengers": [
    {
      "id": 1,
      "fullname": "Todd Motto",
      "checkedIn": true,
      "checkInDate": 1490742000000,
      "children": null
    },
    {
      "id": 2,
      "fullname": "Jane",
      "checkedIn": false,
      "checkInDate": null,
      "children": [
        {
          "name": "Ted",
          "age": 12
        },
        {
          "name": "Chloe",
          "age": 7
        }
      ]
    },
    {
      "id": 3,
      "fullname": "James",
      "checkedIn": true,
      "checkInDate": 1491606000000,
      "children": null
    },
    {
      "id": 4,
      "fullname": "Louise",
      "checkedIn": true,
      "checkInDate": 1488412800000,
      "children": [
        {
          "name": "Jessica",
          "age": 1
        }
      ]
    },
    {
      "id": 5,
      "fullname": "Tina",
      "checkedIn": false,
      "checkInDate": null,
      "children": null
    }
  ]
}